﻿"data.namespace_name: Descending","Unique count of data.client_ip"
framework,631649
"zenodo-broker",581636
mattermost,180408
"kicad-hosting",166901
gitlab,123880
"root-forum",82156
"sso-motd-api",69035
"web-infrastructure",43776
mattercamo,36589
webanalytics,36169
"cds-ils",35395
marketplace,26451
directory,22844
readthedocs,18242
"geant4-forum",14181
"line-mode",14044
linux,13326
codimd,11985
opendata,11106
ngass,10729
webcast,10008
oos,8928
maps,8744
"mm-auth",8465
worldwideweb,8186
ojs,7813
"fluka-forum",7165
"cms-info",6734
angelsanddemons,6029
"users-portal",4508
matomo,4296
"drupal-community",4194
"indico-discourse",4145
"authorization-service-api",3852
"linux-archive",3837
clouddocs,3645
"zenodo-broker-qa",3618
newdle,2958
csc,2865
"video-player",2791
web30,2686
"be-op-logbook",2655
"club-orientation-wp",2444
reanahub,2411
"indico-shortener",2358
batchdocs,2317
"alice-talk",2111
videoconference,2078
"indico-docs",2065
devices,2061
"auth-docs",1970
"swan-community",1890
"ohwr-discourse",1753
reana,1683
"cms-ml-journalclub",1681
"eos-community",1650
"cf-ast-symbol-table",1564
default,1547
"mailservices-docs",1514
"inveniordm-docs",1440
"invenio-talk",1425
"smcs-unosat",1395
"lhcb-nightlies",1222
"ecal-automation-relay",1216
"wit-hub",1191
"reana-docs",1163
"cms-talk",1145
"opendata-forum",1111
abrtanalytics,1057
eos,1049
"nxcals-docs",1031
analysispreservation,1021
"cernphone-docs",1011
notifications,994
"jira-open",921
"dial-backend",897
discourse,881
"prod-atlas-otp",855
inveniordm,809
"allpix-squared-forum",760
configdocs,752
"dir-ext-prod",747
"atlas-talk",718
cesaam,690
"clubs-community",682
"swan-gallery",677
"application-portal",656
lxplusdoc,646
"linux-qa",642
"lpgbt-support",635
"volleyball-club",635
"wlcg-soc-wg-doc",623
"opendata-dev",619
"security-issues",611
"adc-monitoring",583
"acc-stats",565
"summer-timetable",565
dbod,553
"computing-blog",533
"eoscta-docs",509
"__other__",24114
