﻿"data.servername: Descending",Count
generic,19365903
"cvmrepo.web.cern.ch",13100412
"cms-egamma.web.cern.ch",11368163
"kaminsky.web.cern.ch",5118275
"diracproject.web.cern.ch",5102867
"jschulte.web.cern.ch",3845275
"lcgpackages.web.cern.ch",3176834
"christiw.web.cern.ch",3137621
"xrootd.web.cern.ch",2910225
"lcd-data.web.cern.ch",2836263
"lhcbproject.web.cern.ch",2662373
"storage-ci.web.cern.ch",2526455
"byates.web.cern.ch",2221512
"xiw.web.cern.ch",1966233
"jaandrej.web.cern.ch",1690430
"cms-hgcal-tb.web.cern.ch",1628306
"clasaosa.web.cern.ch",1507645
"vmyronen.web.cern.ch",1236095
"atlas-groupdata.web.cern.ch",1178879
"lhcb-nightlies-artifacts.web.cern.ch",1155046
"areinsvo.web.cern.ch",1107741
"test-cmills-hww.web.cern.ch",1014032
"qnguyen.web.cern.ch",911370
"ratramon.web.cern.ch",908188
"nshafiei.web.cern.ch",877491
"tjavaid.web.cern.ch",874347
"dss-ci-repo.web.cern.ch",867112
"wenyu.web.cern.ch",866500
"atishelm.web.cern.ch",762713
"atlas-project-felix.web.cern.ch",761359
"jixiao.web.cern.ch",684355
"jmoberg.web.cern.ch",671957
"camendol.web.cern.ch",669964
"safreed.web.cern.ch",668424
"pgadow.web.cern.ch",600544
"bjoshi.web.cern.ch",588459
"lhcb-rpm.web.cern.ch",586866
"atlas-trigger-operations.web.cern.ch",551988
"cms-unified.web.cern.ch",541233
"ztao.web.cern.ch",540151
"cmspage1.web.cern.ch",516621
"sthayil.web.cern.ch",502669
"cernboxdistr.web.cern.ch",494320
"pmeiring.web.cern.ch",458218
"anmehta.web.cern.ch",454511
"writing-guidelines.web.cern.ch",431979
"kaura.web.cern.ch",413671
"ivovtin.web.cern.ch",413063
"lkardapo.web.cern.ch",410198
"wredjeb.web.cern.ch",396485
"melu.web.cern.ch",395165
"dlabranc.web.cern.ch",385472
"ocerri.web.cern.ch",383887
"friti.web.cern.ch",371009
"cdc.web.cern.ch",370877
"amkalsi.web.cern.ch",366974
"test-amkalsi.web.cern.ch",365195
"project-trigger-alignment.web.cern.ch",352306
"rraturi.web.cern.ch",331885
"chenguan.web.cern.ch",316256
"fts-repo.web.cern.ch",309173
"cta-ci-repo.web.cern.ch",300909
"kelong.web.cern.ch",296459
"lzygala.web.cern.ch",295979
"mmittal.web.cern.ch",285630
"accelerating-news-arc.web.cern.ch",281619
"geant4-userdoc.web.cern.ch",271000
"test-writing-guidelines-static.web.cern.ch",267859
"test-alicematters-static.web.cern.ch",254811
"lhcb-wg.web.cern.ch",249944
"diracos.web.cern.ch",248770
"prrout.web.cern.ch",246833
"lhcb-core-doc.web.cern.ch",244541
"syuan.web.cern.ch",244223
"vbertacc.web.cern.ch",240577
"dmc-repo.web.cern.ch",238761
"jheikkil.web.cern.ch",238461
"alirepo.web.cern.ch",232043
"mratti.web.cern.ch",227351
"evourlio.web.cern.ch",224406
"sciencepad.web.cern.ch",223646
"areimers.web.cern.ch",218678
"prhussai.web.cern.ch",218481
"llechner.web.cern.ch",216919
"adsalvad.web.cern.ch",204555
"test-atlas-public-static.web.cern.ch",203680
"canoe-kayak-d7.web.cern.ch",202130
"nvalle.web.cern.ch",201641
"twamorka.web.cern.ch",198466
"anlyon.web.cern.ch",198056
"publicscreens.web.cern.ch",193751
"boh.web.cern.ch",193235
"test-writing-guidelines.web.cern.ch",190236
"ipbus.web.cern.ch",188793
"cms-project-l1osw-trac-backup.web.cern.ch",184936
"test-ep-dep-ags-static.web.cern.ch",184090
"apsallid.web.cern.ch",179754
"jneundor.web.cern.ch",176803
"bfontana.web.cern.ch",172688
"lhcpoweringtests.web.cern.ch",170569
"__other__",18395003
